\relax 
\providecommand\hyper@newdestlabel[2]{}
\citation{bib:artykul}
\citation{bib:ksiazka}
\citation{bib:konferencja}
\@writefile{toc}{\contentsline {chapter}{\numberline {2}[Analiza tematu]}{3}{chapter.2}}
\@writefile{lof}{\addvspace {10\p@ }}
\@writefile{lot}{\addvspace {10\p@ }}
\select@language{british}
\@writefile{toc}{\select@language{british}}
\@writefile{lof}{\select@language{british}}
\@writefile{lot}{\select@language{british}}
\select@language{polish}
\@writefile{toc}{\select@language{polish}}
\@writefile{lof}{\select@language{polish}}
\@writefile{lot}{\select@language{polish}}
\@writefile{toc}{\contentsline {section}{\numberline {2.1}Istota stosowania honeypot'\IeC {\'o}w}{4}{section.2.1}}
\@writefile{toc}{\contentsline {section}{\numberline {2.2}Klasyfikacja honeypot'\IeC {\'o}w}{4}{section.2.2}}
\@writefile{toc}{\contentsline {section}{\numberline {2.3}Sieci honeynet}{4}{section.2.3}}
\@writefile{toc}{\contentsline {section}{\numberline {2.4}Emulacja i symulacja w honeypot'ach}{4}{section.2.4}}
\@writefile{toc}{\contentsline {section}{\numberline {2.5}Niedoskona\IeC {\l }o\IeC {\'s}ci system\IeC {\'o}w honeypot}{4}{section.2.5}}
\@writefile{toc}{\contentsline {section}{\numberline {2.6}Systemy sandbox}{4}{section.2.6}}
\@writefile{toc}{\contentsline {section}{\numberline {2.7}Metodyki wykrywania \IeC {\'s}rodowiska testowego}{4}{section.2.7}}
\@writefile{toc}{\contentsline {section}{\numberline {2.8}}{4}{section.2.8}}
\@setckpt{tex/analiza}{
\setcounter{page}{5}
\setcounter{equation}{0}
\setcounter{enumi}{0}
\setcounter{enumii}{0}
\setcounter{enumiii}{0}
\setcounter{enumiv}{0}
\setcounter{footnote}{0}
\setcounter{mpfootnote}{0}
\setcounter{part}{0}
\setcounter{chapter}{2}
\setcounter{section}{8}
\setcounter{subsection}{0}
\setcounter{subsubsection}{0}
\setcounter{paragraph}{0}
\setcounter{subparagraph}{0}
\setcounter{figure}{0}
\setcounter{table}{0}
\setcounter{parentequation}{0}
\setcounter{Item}{0}
\setcounter{Hfootnote}{0}
\setcounter{bookmark@seq@number}{10}
\setcounter{@pps}{0}
\setcounter{@ppsavesec}{0}
\setcounter{@ppsaveapp}{0}
\setcounter{lstnumber}{1}
\setcounter{stronyPozaNumeracja}{2}
\setcounter{section@level}{1}
\setcounter{lstlisting}{0}
}
