\relax 
\providecommand\hyper@newdestlabel[2]{}
\@writefile{toc}{\contentsline {chapter}{\numberline {4}Badania}{7}{chapter.4}}
\@writefile{lof}{\addvspace {10\p@ }}
\@writefile{lot}{\addvspace {10\p@ }}
\@writefile{toc}{\contentsline {section}{\numberline {4.1}Metodyka bada\IeC {\'n}}{7}{section.4.1}}
\@writefile{toc}{\contentsline {section}{\numberline {4.2}Zbiory danych}{7}{section.4.2}}
\@writefile{toc}{\contentsline {section}{\numberline {4.3}Wyniki}{7}{section.4.3}}
\@writefile{lof}{\contentsline {figure}{\numberline {4.1}{\ignorespaces Podpis rysunku po rysunkiem.}}{8}{figure.4.1}}
\newlabel{fig:2}{{4.1}{8}{Podpis rysunku po rysunkiem}{figure.4.1}{}}
\@writefile{lot}{\contentsline {table}{\numberline {4.1}{\ignorespaces Opis tabeli nad ni\IeC {\k a}.}}{8}{table.4.1}}
\newlabel{id:tab:wyniki}{{4.1}{8}{Opis tabeli nad nią}{table.4.1}{}}
\@setckpt{tex/badania}{
\setcounter{page}{9}
\setcounter{equation}{0}
\setcounter{enumi}{0}
\setcounter{enumii}{0}
\setcounter{enumiii}{0}
\setcounter{enumiv}{0}
\setcounter{footnote}{0}
\setcounter{mpfootnote}{0}
\setcounter{part}{0}
\setcounter{chapter}{4}
\setcounter{section}{3}
\setcounter{subsection}{0}
\setcounter{subsubsection}{0}
\setcounter{paragraph}{0}
\setcounter{subparagraph}{0}
\setcounter{figure}{1}
\setcounter{table}{1}
\setcounter{parentequation}{0}
\setcounter{Item}{0}
\setcounter{Hfootnote}{0}
\setcounter{bookmark@seq@number}{21}
\setcounter{@pps}{0}
\setcounter{@ppsavesec}{0}
\setcounter{@ppsaveapp}{0}
\setcounter{lstnumber}{1}
\setcounter{stronyPozaNumeracja}{2}
\setcounter{section@level}{1}
\setcounter{lstlisting}{0}
}
