\relax 
\providecommand\hyper@newdestlabel[2]{}
\@writefile{toc}{\contentsline {chapter}{\numberline {3}[Przedmiot pracy]}{5}{chapter.3}}
\@writefile{lof}{\addvspace {10\p@ }}
\@writefile{lot}{\addvspace {10\p@ }}
\@writefile{toc}{\contentsline {section}{\numberline {3.1}Konfiguracja \IeC {\'s}rodowiska testowego}{5}{section.3.1}}
\@writefile{toc}{\contentsline {section}{\numberline {3.2}Metody analizy ruchu sieciowego}{5}{section.3.2}}
\@writefile{toc}{\contentsline {section}{\numberline {3.3}Metody analizy protoko\IeC {\l }u us\IeC {\l }ugi}{5}{section.3.3}}
\@writefile{toc}{\contentsline {section}{\numberline {3.4}Metody analizy \IeC {\'s}rodowiska}{5}{section.3.4}}
\@writefile{toc}{\contentsline {section}{\numberline {3.5}Metody analizy systemu operacyjnego}{5}{section.3.5}}
\@writefile{toc}{\contentsline {section}{\numberline {3.6}}{5}{section.3.6}}
\@setckpt{tex/przedmiot}{
\setcounter{page}{6}
\setcounter{equation}{0}
\setcounter{enumi}{0}
\setcounter{enumii}{0}
\setcounter{enumiii}{0}
\setcounter{enumiv}{0}
\setcounter{footnote}{0}
\setcounter{mpfootnote}{0}
\setcounter{part}{0}
\setcounter{chapter}{3}
\setcounter{section}{6}
\setcounter{subsection}{0}
\setcounter{subsubsection}{0}
\setcounter{paragraph}{0}
\setcounter{subparagraph}{0}
\setcounter{figure}{0}
\setcounter{table}{0}
\setcounter{parentequation}{0}
\setcounter{Item}{0}
\setcounter{Hfootnote}{0}
\setcounter{bookmark@seq@number}{17}
\setcounter{@pps}{0}
\setcounter{@ppsavesec}{0}
\setcounter{@ppsaveapp}{0}
\setcounter{lstnumber}{1}
\setcounter{stronyPozaNumeracja}{2}
\setcounter{section@level}{1}
\setcounter{lstlisting}{0}
}
